Cyclistic_bike_share_Projeto
…
Ordenando a coluna com a função função ordered():

cyclistic_data$mes_saida <- ordered(cyclistic_data$mes_saida, levels = c("Jan", "Fev", "Mar", "Abr", "Mai", "Jun", "Jul", "Ago", "Set", "Out", "Nov", "Dez"))

Analise do número total de viagens de cada grupo de usuários por
mês

Total de viagens a cada mes:

num_total<- cyclistic_data %>% 
  group_by(member_casual, mes_saida) %>% 
  dplyr::summarise(numero_viagens = length(duracao_viagem), .groups = 'drop')
print(num_total)

## # A tibble: 24 × 3
##    member_casual mes_saida numero_viagens
##    <chr>         <ord>              <int>
##  1 casual        Jan                24339
##  2 casual        Fev                46957
##  3 casual        Mar                62042
##  4 casual        Abr               146878
##  5 casual        Mai               233563
##  6 casual        Jun               300408
##  7 casual        Jul               330142
##  8 casual        Ago               309931
##  9 casual        Set               260836
## 10 casual        Out               176553
## # ℹ 14 more rows
…
Analise do tempo médio de viagens de cada grupo de usuários por
mês

Calculando a duracao media

tempo_medio <- cyclistic_data %>% 
  group_by(member_casual, mes_saida) %>% 
  dplyr::summarise(duracao_media = mean(duracao_viagem)/60, .groups = 'drop')
print(tempo_medio)

## # A tibble: 24 × 3
##    member_casual mes_saida duracao_media
##    <chr>         <ord>             <dbl>
##  1 casual        Jan                14.8
##  2 casual        Fev                18.9
##  3 casual        Mar                15.2
##  4 casual        Abr                20.4
##  5 casual        Mai                22.0
##  6 casual        Jun                21.7
##  7 casual        Jul                22.7
##  8 casual        Ago                22.0
##  9 casual        Set                21.2
## 10 casual        Out                19.1
## # ℹ 14 more rows
…
Nos finais de semana a duração média das viagens do grupo de
usuários casuais é maior (possível uso recreativo). A duração média das
viagens de membros em dias úteis está em torno de 12 minutos com pouca
varição.

Analise do número total de viagens de cada grupo de usuários por
horário do dia

num_total_hora<- cyclistic_data %>%
  group_by(member_casual, horario_saida) %>%
  dplyr::summarise(numero_viagens_hora = length(duracao_viagem), .groups = 'drop')
print(num_total_hora)

## # A tibble: 48 × 3
##    member_casual horario_saida numero_viagens_hora
##    <chr>                 <int>               <int>
##  1 casual                    0               36376
##  2 casual                    1               23619
##  3 casual                    2               14198
##  4 casual                    3                7826
##  5 casual                    4                5787
##  6 casual                    5               11238
##  7 casual                    6               29525
##  8 casual                    7               52389
##  9 casual                    8               70308
## 10 casual                    9               69461
## # ℹ 38 more rows
…
Percebemos a persistência do padrão de uso observado até aqui, os
membros, em sua maioria, fazem uso mais intenso das bicicletas em
horário comercial.

Analise do tempo médio de viagem de cada grupo de usuários por
horário do dia

Calculando a duração media

tempo_medio_hora <- cyclistic_data %>% 
  group_by(member_casual, horario_saida) %>% 
  dplyr::summarise(duracao_media_hora = mean(duracao_viagem)/60, .groups = 'drop')
print(tempo_medio_hora)

## # A tibble: 48 × 3
##    member_casual horario_saida duracao_media_hora
##    <chr>                 <int>              <dbl>
##  1 casual                    0               18.4
##  2 casual                    1               18.2
##  3 casual                    2               18.2
##  4 casual                    3               18.1
##  5 casual                    4               15.5
##  6 casual                    5               13.9
##  7 casual                    6               14.7
##  8 casual                    7               14.0
##  9 casual                    8               15.6
## 10 casual                    9               20.8
## # ℹ 38 more rows
…
